Case #1: 700
Case #2: 603
Case #3: 345
Case #4: 8
Case #5: 374
Case #6: 654
Case #7: 685
Case #8: 1034
Case #9: 526
Case #10: 475
Case #11: 673
Case #12: 1821
Case #13: 604
Case #14: 10
Case #15: 990
Case #16: 475
Case #17: 592
Case #18: 748
Case #19: 516
Case #20: 9
